D:\JAVApro\changgou-parent\changgou-service\changgou-service-file\src\main\java\com\changgou\FileApplication.java
D:\JAVApro\changgou-parent\changgou-service\changgou-service-file\src\main\java\com\changgou\util\FastDFSClient.java
D:\JAVApro\changgou-parent\changgou-service\changgou-service-file\src\main\java\com\changgou\controller\FileController.java
